{
	"process_id" : 19216,
	"version" : "2019.4.9f1",
	"app_path" : "C:/Program Files/Unity/Hub/Editor/2019.4.9f1/Editor/Unity.exe",
	"app_contents_path" : "C:/Program Files/Unity/Hub/Editor/2019.4.9f1/Editor/Data"
}