%YAML 1.1
%TAG !u! tag:unity3d.com,2011:
--- !u!114 &11400000
MonoBehaviour:
  m_ObjectHideFlags: 0
  m_CorrespondingSourceObject: {fileID: 0}
  m_PrefabInstance: {fileID: 0}
  m_PrefabAsset: {fileID: 0}
  m_GameObject: {fileID: 0}
  m_Enabled: 1
  m_EditorHideFlags: 0
  m_Script: {fileID: 11500000, guid: 6f78192cec1344d83a177ac5e6139ab3, type: 3}
  m_Name: Settings
  m_EditorClassIdentifier: 
  TotalMessagesSubmitted: 0
  TotalMessagesFailed: 0
  DesignMessagesSubmitted: 0
  DesignMessagesFailed: 0
  QualityMessagesSubmitted: 0
  QualityMessagesFailed: 0
  ErrorMessagesSubmitted: 0
  ErrorMessagesFailed: 0
  BusinessMessagesSubmitted: 0
  BusinessMessagesFailed: 0
  UserMessagesSubmitted: 0
  UserMessagesFailed: 0
  CustomArea: 
  gameKey:
  - 4741f6f00dc4262169b04b3a1ccecb45
  secretKey:
  - 89691e0165b5e4e91e08bd3ccc25a32c40de9f68
  Build:
  - 0.1
  SelectedPlatformOrganization:
  - 
  SelectedPlatformStudio:
  - 
  SelectedPlatformGame:
  - 
  SelectedPlatformGameID: ffffffff
  SelectedOrganization: 01000000
  SelectedStudio: 01000000
  SelectedGame: 00000000
  NewVersion: 
  Changes: 
  SignUpOpen: 1
  StudioName: 
  GameName: Hockey
  OrganizationName: 
  OrganizationIdentifier: 
  EmailGA: 
  IntroScreen: 0
  InfoLogEditor: 1
  InfoLogBuild: 1
  VerboseLogBuild: 0
  UseManualSessionHandling: 0
  SendExampleGameDataToMyGame: 0
  UseIMEI: 0
  InternetConnectivity: 0
  CustomDimensions01: []
  CustomDimensions02: []
  CustomDimensions03: []
  ResourceItemTypes: []
  ResourceCurrencies: []
  LastCreatedGamePlatform: -1
  Platforms: 0b000000
  CurrentInspectorState: 1
  ClosedHints: 
  DisplayHints: 0
  DisplayHintsScrollState: {x: 0, y: 0}
  Logo: {fileID: 2800000, guid: 98df8f9c5678a4e5d964caa1244e8958, type: 3}
  UpdateIcon: {fileID: 0}
  InfoIcon: {fileID: 0}
  DeleteIcon: {fileID: 0}
  GameIcon: {fileID: 0}
  HomeIcon: {fileID: 0}
  InstrumentIcon: {fileID: 0}
  QuestionIcon: {fileID: 0}
  UserIcon: {fileID: 0}
  AmazonIcon: {fileID: 0}
  GooglePlayIcon: {fileID: 0}
  iosIcon: {fileID: 0}
  macIcon: {fileID: 0}
  windowsPhoneIcon: {fileID: 0}
  UsePlayerSettingsBuildNumber: 0
  SubmitErrors: 1
  MaxErrorCount: 10
  SubmitFpsAverage: 1
  SubmitFpsCritical: 1
  IncludeGooglePlay: 1
  FpsCriticalThreshold: 20
  FpsCirticalSubmitInterval: 1
  PlatformFoldOut: 01
  CustomDimensions01FoldOut: 0
  CustomDimensions02FoldOut: 0
  CustomDimensions03FoldOut: 0
  ResourceItemTypesFoldOut: 0
  ResourceCurrenciesFoldOut: 0
